Geography 13
…
mississippi <- USAboundaries::us_states() %>% 
  filter(state_name %in% "Mississippi")

read_sf("../data/rivers")

## Simple feature collection with 98 features and 4 fields
## Geometry type: MULTILINESTRING
## Dimension:     XY
## Bounding box:  xmin: -164.8874 ymin: -36.96945 xmax: 160.7636 ymax: 71.39249
## Geodetic CRS:  WGS 84
## # A tibble: 98 x 5
##    NAME     SYSTEM MILES KILOMETERS                                     geometry
##    <chr>    <chr>  <dbl>      <dbl>                        <MULTILINESTRING []>
##  1 Kolyma   <NA>   2552.      4106. ((144.8419 61.75915, 144.8258 61.8036, 145.~
##  2 Parana   Parana 1616.      2601. ((-51.0064 -20.07941, -51.02972 -20.2225, -~
##  3 San Fra~ <NA>   1494.      2404. ((-46.43639 -20.25807, -46.49835 -20.25306,~
##  4 Japura   Amazon 1223.      1968. ((-76.71056 1.624166, -76.70029 1.688336, -~
##  5 Putumayo Amazon  890.      1432. ((-76.86806 1.300553, -76.86695 1.295, -76.~
##  6 Rio Mar~ Amazon  889.      1431. ((-73.5079 -4.459834, -73.79197 -4.621942, ~
##  7 Ucayali  Amazon 1298.      2089. ((-73.5079 -4.459834, -73.51585 -4.506949, ~
##  8 Guapore  Amazon  394.       634. ((-65.39585 -10.39333, -65.39578 -10.39358,~
##  9 Madre d~ Amazon  568.       914. ((-65.39585 -10.39333, -65.45279 -10.40111,~
## 10 Amazon   Amazon 1890.      3042. ((-73.5079 -4.459834, -73.45141 -4.427785, ~
## # ... with 88 more rows
…
